{
    "directory_name": "c_proj",
    "project_name": "C Simple Makefile Project",
    "project_brief": "brief description",
    "author": "Rane Brown",
    "executable": "a.out",
    "open_source_license": ["MIT", "BSD-3-Clause", "Apache-2.0", "GNU GPL-3.0", "None"]
}
